Acceso Programático a Datos Espaciales de la SDOT-PCM Perú • rsdot
…
deps <- get_departamentos()
#> Descargando: Límites Censales Departamentales (INEI 2023)...
#> Fuente: OSF - Repositorio DEMARCA
#> ✓ Descarga completada
#> Descomprimiendo archivos...
#> Cargando geometrías...
#> ✓ Datos cargados: 25 departamentos
deps
#> Simple feature collection with 25 features and 7 fields
#> Geometry type: MULTIPOLYGON
#> Dimension:     XY
#> Bounding box:  xmin: -81.32823 ymin: -18.35093 xmax: -68.65228 ymax: -0.03860597
#> Geodetic CRS:  WGS 84
#> # A tibble: 25 × 8
#>      gid iddpto nombdep      capital      tipo_norma numero fecha     
#>    <int> <chr>  <chr>        <chr>        <chr>      <chr>  <date>    
#>  1     1 01     AMAZONAS     CHACHAPOYAS  LEY        S/N    1832-11-21
#>  2     2 02     ANCASH       HUARAZ       LEY        S/N    1851-11-05
#>  3     3 03     APURIMAC     ABANCAY      LEY        S/N    1873-04-28
#>  4     4 04     AREQUIPA     AREQUIPA     REGLAMENTO S/N    1822-04-26
#>  5     5 05     AYACUCHO     AYACUCHO     REGLAMENTO S/N    1822-04-26
#>  6     6 06     CAJAMARCA    CAJAMARCA    LEY        S/N    1857-01-02
#>  7     7 07     CALLAO       CALLAO       <NA>       <NA>   NA        
#>  8     8 08     CUSCO        CUSCO        REGLAMENTO S/N    1822-04-26
#>  9     9 09     HUANCAVELICA HUANCAVELICA LEY        S/N    1857-01-02
#> 10    10 10     HUANUCO      HUANUCO      LEY        S/N    1869-01-24
#> # ℹ 15 more rows
#> # ℹ 1 more variable: geometry <MULTIPOLYGON [°]>
…
densidad_cusco <- get_densidad_poblacional(departamento = "CUSCO")
#> Descargando: CUSCO...
#> ✓ Descarga completada: CUSCO
#> Cargando datos: CUSCO...
#> Validando geometrías...
#> ✓ Cargado: CUSCO (649 registros)
#> ✓ Datos cargados exitosamente: 649 registros
densidad_cusco
#> Simple feature collection with 649 features and 11 fields
#> Geometry type: MULTIPOLYGON
#> Dimension:     XY
#> Bounding box:  xmin: -73.9811 ymin: -15.45829 xmax: -70.34507 ymax: -11.21229
#> Geodetic CRS:  WGS 84
#> # A tibble: 649 × 12
#>    ubigeo nombdep nombprov     nombdist   capital nivel rango descrip shape_leng
#>  * <chr>  <chr>   <chr>        <chr>      <chr>   <chr> <chr> <chr>        <dbl>
#>  1 080703 CUSCO   CHUMBIVILCAS CHAMACA    CHAMACA Muy … <= -… Tasa m…    0.0302 
#>  2 080707 CUSCO   CHUMBIVILCAS QUIÑOTA    QUIÑOTA Muy … <= -… Tasa m…    0.00842
#>  3 080202 CUSCO   ACOMAYO      ACOPIA     ACOPIA  Muy … <= -… Tasa m…    0.0154 
#>  4 080701 CUSCO   CHUMBIVILCAS SANTO TOM… SANTO … Muy … <= -… Tasa m…    0.118  
#>  5 081002 CUSCO   PARURO       ACCHA      ACCHA   Muy … <= -… Tasa m…    0.0240 
#>  6 080501 CUSCO   CANAS        YANAOCA    YANAOCA Muy … <= -… Tasa m…    0.0302 
#>  7 080506 CUSCO   CANAS        PAMPAMARCA PAMPAM… Muy … <= -… Tasa m…    0.00743
#>  8 080601 CUSCO   CANCHIS      SICUANI    SICUANI Muy … <= -… Tasa m…    0.0347 
#>  9 081207 CUSCO   QUISPICANCHI HUARO      HUARO   Muy … <= -… Tasa m…    0.0232 
#> 10 080806 CUSCO   ESPINAR      PICHIGUA   PICHIG… Muy … <= -… Tasa m…    0.0273 
#> # ℹ 639 more rows
#> # ℹ 3 more variables: shape_area <dbl>, geom <MULTIPOLYGON [°]>,
#> #   departamento <chr>
…
