…
``` r
deps <- get_departamentos()
#> Descargando: Límites Censales Departamentales (INEI 2023)...
#> Fuente: OSF - Repositorio DEMARCA
#> ✓ Descarga completada
#> Descomprimiendo archivos...
#> Cargando geometrías...
#> ✓ Datos cargados: 25 departamentos
deps
#> Simple feature collection with 25 features and 7 fields
#> Geometry type: MULTIPOLYGON
#> Dimension:     XY
#> Bounding box:  xmin: -81.32823 ymin: -18.35093 xmax: -68.65228 ymax: -0.03860597
#> Geodetic CRS:  WGS 84
#> # A tibble: 25 × 8
#>      gid iddpto nombdep      capital      tipo_norma numero fecha     
#>    <int> <chr>  <chr>        <chr>        <chr>      <chr>  <date>    
#>  1     1 01     AMAZONAS     CHACHAPOYAS  LEY        S/N    1832-11-21
#>  2     2 02     ANCASH       HUARAZ       LEY        S/N    1851-11-05
#>  3     3 03     APURIMAC     ABANCAY      LEY        S/N    1873-04-28
#>  4     4 04     AREQUIPA     AREQUIPA     REGLAMENTO S/N    1822-04-26
#>  5     5 05     AYACUCHO     AYACUCHO     REGLAMENTO S/N    1822-04-26
#>  6     6 06     CAJAMARCA    CAJAMARCA    LEY        S/N    1857-01-02
#>  7     7 07     CALLAO       CALLAO       <NA>       <NA>   NA        
#>  8     8 08     CUSCO        CUSCO        REGLAMENTO S/N    1822-04-26
#>  9     9 09     HUANCAVELICA HUANCAVELICA LEY        S/N    1857-01-02
#> 10    10 10     HUANUCO      HUANUCO      LEY        S/N    1869-01-24
#> # ℹ 15 more rows
#> # ℹ 1 more variable: geometry <MULTIPOLYGON [°]>
```
…
